{
    "map": [
        "bbbbbbbbbbbbbbbbbbbbbbbbbbbbbbbbb",
        "b                               b",
        "b  bbbbbbbbbb bbbbbbbb bbbbbbbb b",
        "b    b       b   b     b      b b",
        "bbbb bb      bb b bbbb b      b b",
        "b     b     b   b     b       b b",
        "bbbb  bb   b bbb bb b bwww bbbb b",
        "b   b  bb  b b     b  bw w      b",
        "b b b   bb          b bw wwww   b",
        "b b      bbbb  012  b     w w   b",
        "b bb           345    www w w   b",
        "b   b   bbbb   678  b w w       b",
        "b b    b            b w w       b",
        "b b   b b bb       bb           b",
        "b b  b      bb b bb      wwwwwwwb",
        "b b   b b b b  b b      bw      b",
        "b b b       b  b     www w      b",
        "b b bb b b b     b bbw w w      b",
        "b  bb       b   b bb w w www wwwb",
        "b  b b b b b                    b",
        "bbbbbbbbbbbbbbbbbbbbbbbbbbbbbbbbb"
    ],
    "legend": {
        "b": {
            "type": "bush",
            "sprite": "bush_0"
        },
        "w": {
            "type": "ground",
            "sprite": "stone_wall_0"
        },
        "0": {
            "type": "ground",
            "sprite": "water_edge_tl"
        },
        "1": {
            "type": "ground",
            "sprite": "water_edge_t"
        },
        "2": {
            "type": "ground",
            "sprite": "water_edge_tr"
        },
        "3": {
            "type": "ground",
            "sprite": "water_edge_l"
        },
        "4": {
            "type": "ground",
            "sprite": "water_open_0"
        },
        "5": {
            "type": "ground",
            "sprite": "water_edge_r"
        },
        "6": {
            "type": "ground",
            "sprite": "water_edge_bl"
        },
        "7": {
            "type": "ground",
            "sprite": "water_edge_b"
        },
        "8": {
            "type": "ground",
            "sprite": "water_edge_br"
        },
        "default": {
            "type": "ground",
            "sprite": "grass_0"
        }
    }
}